{
    "apiVersion": "opentestfactory.org/v1alpha1",
    "kind": "AgentRegistration",
    "metadata": {
        "name": "test agent channel"
    },
    "spec": {
        "tags": [
            "windows",
            "robotframework"
        ]
    }
}
