{
  "apiVersion":"opentestfactory.org/v1alpha1",
  "kind":  "Subscription",
  "metadata": {
    "name": "testclient"
  },
  "spec": {
    "selector": {
      "matchKind": "WantedKind"
    },
    "subscriber":{
      "endpoint":"http://localhost:1088/kindSelectiveMessageIn"
    }
  }
}
