{
  "apiVersion": "opentestfactory.org/v1alpha1",
  "kind": "Workflow",
  "metadata": {
    "name": "Simple Postman"
},
"jobs": {
"explicitJob": {
"runs-on": ["ssh","postman","linux"],
"steps": [
{
"uses":"actions/checkout@v2",
"with": {
"repository":"https://gitlab.com/opentestfactory/test-samples/postman-samples"
}
},
{
"uses":"postman/execute@v1",
"with":{
"test":"postman-samples/CollectionTestsGitLab.postman_collection.json"
}
}
]
}
}
}
